%YAML 1.1
%TAG !u! tag:unity3d.com,2011:
--- !u!114 &11400000
MonoBehaviour:
  m_ObjectHideFlags: 0
  m_CorrespondingSourceObject: {fileID: 0}
  m_PrefabInstance: {fileID: 0}
  m_PrefabAsset: {fileID: 0}
  m_GameObject: {fileID: 0}
  m_Enabled: 1
  m_EditorHideFlags: 0
  m_Script: {fileID: 11500000, guid: 0fc04101019d81b4ebf54b5d918f45f0, type: 3}
  m_Name: Explorer
  m_EditorClassIdentifier: 
  type: 3
  enemy: 0
  image: {fileID: 0}
  selectable: 1
  highlightedColor: {r: 1, g: 0.8980392, b: 0, a: 0.2509804}
  selectedColor: {r: 1, g: 0.8980392, b: 0, a: 1}
  description: FAAAAAAASSST
  health: 140
  speed: 14
  attackDamage: 2
  attackCooldown: 1
  attackRange: 2
  visionRange: 20
  Specializators: []
