%YAML 1.1
%TAG !u! tag:unity3d.com,2011:
--- !u!114 &11400000
MonoBehaviour:
  m_ObjectHideFlags: 0
  m_CorrespondingSourceObject: {fileID: 0}
  m_PrefabInstance: {fileID: 0}
  m_PrefabAsset: {fileID: 0}
  m_GameObject: {fileID: 0}
  m_Enabled: 1
  m_EditorHideFlags: 0
  m_Script: {fileID: 11500000, guid: 0fc04101019d81b4ebf54b5d918f45f0, type: 3}
  m_Name: Karen
  m_EditorClassIdentifier: 
  type: 7
  enemy: 1
  image: {fileID: 0}
  selectable: 0
  highlightedColor: {r: 0, g: 0, b: 0, a: 0}
  selectedColor: {r: 0, g: 0, b: 0, a: 0}
  description: I WANT THE MANAGER
  health: 200
  speed: 0.5
  attackDamage: 20
  attackCooldown: 6
  attackRange: 6
  visionRange: 16
  Specializators: []
