%YAML 1.1
%TAG !u! tag:unity3d.com,2011:
--- !u!114 &11400000
MonoBehaviour:
  m_ObjectHideFlags: 0
  m_CorrespondingSourceObject: {fileID: 0}
  m_PrefabInstance: {fileID: 0}
  m_PrefabAsset: {fileID: 0}
  m_GameObject: {fileID: 0}
  m_Enabled: 1
  m_EditorHideFlags: 0
  m_Script: {fileID: 11500000, guid: 0fc04101019d81b4ebf54b5d918f45f0, type: 3}
  m_Name: Slime
  m_EditorClassIdentifier: 
  type: 0
  enemy: 0
  image: {fileID: 21300000, guid: df66ae4c3c1bb524bb546d1176869e98, type: 3}
  selectable: 1
  highlightedColor: {r: 1, g: 0.89983654, b: 0, a: 0.2509804}
  selectedColor: {r: 1, g: 0.8980392, b: 0, a: 1}
  description: 
  health: 100
  speed: 2
  attackDamage: 2
  attackCooldown: 3
  attackRange: 4
  visionRange: 10
  Specializators:
  - {fileID: 9002364855783089413, guid: 77f72d36d205bd54a800514bdc48f587, type: 3}
