%YAML 1.1
%TAG !u! tag:unity3d.com,2011:
--- !u!114 &11400000
MonoBehaviour:
  m_ObjectHideFlags: 0
  m_CorrespondingSourceObject: {fileID: 0}
  m_PrefabInstance: {fileID: 0}
  m_PrefabAsset: {fileID: 0}
  m_GameObject: {fileID: 0}
  m_Enabled: 1
  m_EditorHideFlags: 0
  m_Script: {fileID: 11500000, guid: 0fc04101019d81b4ebf54b5d918f45f0, type: 3}
  m_Name: Tank
  m_EditorClassIdentifier: 
  type: 1
  enemy: 0
  image: {fileID: 0}
  selectable: 1
  highlightedColor: {r: 1, g: 0.8980392, b: 0, a: 0.2509804}
  selectedColor: {r: 1, g: 0.8980392, b: 0, a: 1}
  description: 
  health: 400
  speed: 2
  attackDamage: 10
  attackCooldown: 4
  attackRange: 4
  visionRange: 16
  Specializators: []
