%YAML 1.1
%TAG !u! tag:unity3d.com,2011:
--- !u!1045 &1
EditorBuildSettings:
  m_ObjectHideFlags: 0
  serializedVersion: 2
  m_Scenes:
  - enabled: 0
    path: 
    guid: 00000000000000000000000000000000
  - enabled: 1
    path: Assets/Scenes/menu.unity
    guid: 372c1b0b4dd03b5409c4afd1234e09b1
  - enabled: 1
    path: Assets/Scenes/dev.unity
    guid: 61b439b6b57062c44adf173b6810f3df
  - enabled: 1
    path: Assets/Scenes/dev2.unity
    guid: 2aa528155a416194e8e0c2ede629c8ca
  - enabled: 1
    path: Assets/Scenes/dev3.unity
    guid: 837b52572f1bd4a4087db526d6dc7774
  - enabled: 1
    path: Assets/Scenes/halley.unity
    guid: 57157d741ccfe464eb0b06360d790902
  - enabled: 1
    path: Assets/Scenes/kaim.unity
    guid: 4e272445d2eef0540bfe4acb12588cdb
  - enabled: 1
    path: Assets/Scenes/serenity.unity
    guid: b41a4b6e058d6a843924798adc2093f5
  - enabled: 1
    path: Assets/Scenes/lose.unity
    guid: 0ec516dc16d8af046872767744a9f6d1
  - enabled: 1
    path: Assets/Scenes/win.unity
    guid: 24cf924ce34aadf40b6273701eea1edd
  m_configObjects: {}
